…
```r
datActivityNew <- group_by(datActivityNew, WeekStatus, interval)
```

After grouping the data set, a new summary has been created taking the **mean** of the variable *steps* per *WeekStatus* and *interval*.


```r
datInt2 <- summarise(datActivityNew, StepsAverage = mean(steps, na.rm = TRUE))

datInt2
```

```
## Source: local data frame [576 x 3]
## Groups: WeekStatus [?]
## 
##    WeekStatus interval StepsAverage
##        <fctr>    <int>        <dbl>
## 1     weekday        0   2.25115304
## 2     weekday        5   0.44528302
## 3     weekday       10   0.17316562
## 4     weekday       15   0.19790356
## 5     weekday       20   0.09895178
## 6     weekday       25   1.59035639
## 7     weekday       30   0.69266247
## 8     weekday       35   1.13794549
## 9     weekday       40   0.00000000
## 10    weekday       45   1.79622642
## # ... with 566 more rows
```
…
